CovidDataProject.knit
…
#Appending covid.usa.states.ts with vacc.people

#trimming down vacc.people
my.vacc.people <- vacc.people %>% 
  select(Province_State, Date, People_Fully_Vaccinated, People_Partially_Vaccinated) %>% 
  filter(!is.na(People_Fully_Vaccinated), !is.na(People_Partially_Vaccinated))

#my.vacc.people

#joining
covid.usa.states.ts <- covid.usa.states.ts %>% full_join(my.vacc.people, by = c("Province_State", "Date"))

covid.usa.states.ts

## # A tibble: 36,194 x 6
##    Province_State Date       confirmed_cases confirmed_deaths People_Fully_Vacc~
##    <chr>          <date>               <dbl>            <dbl>              <dbl>
##  1 Alabama        2021-01-01          365747             4872                 NA
##  2 Alabama        2021-01-02          369458             4872                 NA
##  3 Alabama        2021-01-03          371934             4873                 NA
##  4 Alabama        2021-01-04          374095             4878                 NA
##  5 Alabama        2021-01-05          379593             4886                 NA
##  6 Alabama        2021-01-06          384184             4994                 NA
##  7 Alabama        2021-01-07          389230             5080                 NA
##  8 Alabama        2021-01-08          394287             5191                 NA
##  9 Alabama        2021-01-09          399150             5299                 NA
## 10 Alabama        2021-01-10          401900             5334                 NA
## # ... with 36,184 more rows, and 1 more variable:
## #   People_Partially_Vaccinated <dbl>

Visualizing Covid Data from 6 select states

I will be selecting 3 states with the highest confirmed cases
(California, Texas, and Florida) and 3 arbitrarily selected states with
the mild amounts confirmed cases(West Virginia, Oregon, and
Connecticut). These selections are based on the total number of cases as
seen from the following table.

covid.usa.daily <- arrange(covid.usa.daily, Confirmed)
covid.usa.daily

## # A tibble: 58 x 21
##    Province_State      Country_Region Last_Update           Lat  Long_ Confirmed
##    <chr>               <chr>          <dttm>              <dbl>  <dbl>     <dbl>
##  1 Diamond Princess    US             2022-05-24 04:31:55  NA     NA          49
##  2 Grand Princess      US             2022-05-24 04:31:55  NA     NA         103
##  3 American Samoa      US             2022-05-24 04:31:55 -14.3 -170.       6087
##  4 Northern Mariana I~ US             2022-05-24 04:31:55  15.1  146.      11315
##  5 Virgin Islands      US             2022-05-24 04:31:55  18.3  -64.9     19020
##  6 Guam                US             2022-05-24 04:31:55  13.4  145.      48762
##  7 Vermont             US             2022-05-24 04:31:55  44.0  -72.7    129854
##  8 District of Columb~ US             2022-05-24 04:31:55  38.9  -77.0    147210
##  9 Wyoming             US             2022-05-24 04:31:55  42.8 -107.     157409
## 10 South Dakota        US             2022-05-24 04:31:55  44.3  -99.4    239110
## # ... with 48 more rows, and 15 more variables: Deaths <dbl>, Recovered <lgl>,
## #   Active <lgl>, FIPS <dbl>, Incident_Rate <dbl>, Total_Test_Results <dbl>,
## #   People_Hospitalized <lgl>, Case_Fatality_Ratio <dbl>, UID <dbl>,
## #   ISO3 <chr>, Testing_Rate <dbl>, Hospitalization_Rate <lgl>, Date <date>,
## #   People_Tested <lgl>, Mortality_Rate <lgl>
…
Creating a Map visualization of cases in Oregon:

How were the confirmed cases in Oregon Distributed on 4/26/21?

loc.or.confirmed <- covid.usa.ts.confirmed %>% 
  pivot_longer(cols = contains("/"),names_to = "Date", values_to = "confirmed_cases") %>% 
  filter(Province_State == "Oregon", Date == "4/26/21", Lat != 0) %>% 
  select(Lat, Long_, confirmed_cases)

loc.or.confirmed

## # A tibble: 36 x 3
##      Lat Long_ confirmed_cases
##    <dbl> <dbl>           <dbl>
##  1  44.7 -118.             902
##  2  44.5 -123.            2833
##  3  45.2 -122.           16019
##  4  46.0 -124.             924
##  5  45.9 -123.            1607
##  6  43.2 -124.            2010
##  7  44.1 -120.             949
##  8  42.5 -124.             615
##  9  43.9 -121.            7676
## 10  43.3 -123.            3097
## # ... with 26 more rows
…
